<svg width="40" height="37" viewBox="0 0 40 37" fill="none" xmlns="http://www.w3.org/2000/svg">
<path d="M20 36.7L17.1 34.07C6.8 24.72 0 18.55 0 11C0 4.83 4.83 0 11 0C14.48 0 17.82 1.62 20 4.17C22.18 1.62 25.52 0 29 0C35.17 0 40 4.83 40 11C40 18.55 33.2 24.72 22.9 34.07L20 36.7Z" fill="#EB5C5C"/>
</svg>
