<svg width="28" height="36" viewBox="0 0 28 36" fill="none" xmlns="http://www.w3.org/2000/svg">
<path d="M3 2H25V32L13.5 27L3 31V2Z" fill="#FFC52F"/>
<path d="M24 0H4C1.79 0 0.0200005 1.79 0.0200005 4L0 36L14 30L28 36V4C28 1.79 26.21 0 24 0ZM24 30L14 25.65L4 30V4H24V30Z" fill="white"/>
</svg>
